…
Importing fixed-width files with {readr}

The tidyverse package {readr}, part of the tidyverse family of R packages, provides a range of functions that make reading these files efficient.

# load the {readr} package
library(readr)

The widths and variable names can be added as lists to the fwf_widths argument:

read_fwf("penguins_fwf.txt",
         fwf_widths(widths = c(9, 9, 4, 4, 3, 4, 6, 4),
                    col_names = c("species", "island", "bill_length_mm", "bill_depth_mm",
                      "flipper_length_mm", "body_mass_g", "sex", "year")))

## # A tibble: 344 x 8
##    species island bill_length_mm bill_depth_mm flipper_length_~ body_mass_g
##    <chr>   <chr>           <dbl>         <dbl>            <dbl>       <dbl>
##  1 Adelie  Torge~           39.1          18.7              181        3750
##  2 Adelie  Torge~           39.5          17.4              186        3800
##  3 Adelie  Torge~           40.3          18                195        3250
##  4 Adelie  Torge~           NA            NA                 NA          NA
##  5 Adelie  Torge~           36.7          19.3              193        3450
##  6 Adelie  Torge~           39.3          20.6              190        3650
##  7 Adelie  Torge~           38.9          17.8              181        3625
##  8 Adelie  Torge~           39.2          19.6              195        4675
##  9 Adelie  Torge~           34.1          18.1              193        3475
## 10 Adelie  Torge~           42            20.2              190        4250
## # ... with 334 more rows, and 2 more variables: sex <chr>, year <dbl>

A second option is to provide two lists of locations using fwf_positions(), the first with the start positions, and the second with the end positions. The first variable “species” starts at position 1 and ends at position 9, and the second variable “island” starts at 10 and ends at 18, and so on.

read_fwf("penguins_fwf.txt",
         fwf_positions(start = c(1, 10, 19, 23, 27, 30, 34, 40),
                       end = c(9, 18, 22, 26, 29, 33, 39, 43),
                       col_names = c("species", "island", "bill_length_mm", "bill_depth_mm",
                      "flipper_length_mm", "body_mass_g", "sex", "year")))

## # A tibble: 344 x 8
##    species island bill_length_mm bill_depth_mm flipper_length_~ body_mass_g
##    <chr>   <chr>           <dbl>         <dbl>            <dbl>       <dbl>
##  1 Adelie  Torge~           39.1          18.7              181        3750
##  2 Adelie  Torge~           39.5          17.4              186        3800
##  3 Adelie  Torge~           40.3          18                195        3250
##  4 Adelie  Torge~           NA            NA                 NA          NA
##  5 Adelie  Torge~           36.7          19.3              193        3450
##  6 Adelie  Torge~           39.3          20.6              190        3650
##  7 Adelie  Torge~           38.9          17.8              181        3625
##  8 Adelie  Torge~           39.2          19.6              195        4675
##  9 Adelie  Torge~           34.1          18.1              193        3475
## 10 Adelie  Torge~           42            20.2              190        4250
## # ... with 334 more rows, and 2 more variables: sex <chr>, year <dbl>

The third option, fwf_cols, is a syntactic variation on the second approach, with the same values but in a different order. This time, all of the relevant information about each variable is aggregated, with the name followed by the start and end locations.

read_fwf("penguins_fwf.txt",
         fwf_cols(species = c(1, 9),
                  island = c(10, 18),
                  bill_length_mm = c(19, 22),
                  bill_depth_mm = c(23, 26),
                  flipper_length_mm = c(27, 29),
                  body_mass_g = c(30, 33),
                  sex = c(34, 39),
                  year = c(40, 43)
         ))

## # A tibble: 344 x 8
##    species island bill_length_mm bill_depth_mm flipper_length_~ body_mass_g
##    <chr>   <chr>           <dbl>         <dbl>            <dbl>       <dbl>
##  1 Adelie  Torge~           39.1          18.7              181        3750
##  2 Adelie  Torge~           39.5          17.4              186        3800
##  3 Adelie  Torge~           40.3          18                195        3250
##  4 Adelie  Torge~           NA            NA                 NA          NA
##  5 Adelie  Torge~           36.7          19.3              193        3450
##  6 Adelie  Torge~           39.3          20.6              190        3650
##  7 Adelie  Torge~           38.9          17.8              181        3625
##  8 Adelie  Torge~           39.2          19.6              195        4675
##  9 Adelie  Torge~           34.1          18.1              193        3475
## 10 Adelie  Torge~           42            20.2              190        4250
## # ... with 334 more rows, and 2 more variables: sex <chr>, year <dbl>
…
# read 
read_fwf("penguins_fwf.txt", 
         fwf_cols(
           species = 9,
           island = 9,
           bill_length_mm = 4,
           bill_depth_mm = 4,
           flipper_length_mm = 3,
           body_mass_g = 4,
           sex = 6,
           year = 4
           )
         )

## # A tibble: 344 x 8
##    species island bill_length_mm bill_depth_mm flipper_length_~ body_mass_g
##    <chr>   <chr>           <dbl>         <dbl>            <dbl>       <dbl>
##  1 Adelie  Torge~           39.1          18.7              181        3750
##  2 Adelie  Torge~           39.5          17.4              186        3800
##  3 Adelie  Torge~           40.3          18                195        3250
##  4 Adelie  Torge~           NA            NA                 NA          NA
##  5 Adelie  Torge~           36.7          19.3              193        3450
##  6 Adelie  Torge~           39.3          20.6              190        3650
##  7 Adelie  Torge~           38.9          17.8              181        3625
##  8 Adelie  Torge~           39.2          19.6              195        4675
##  9 Adelie  Torge~           34.1          18.1              193        3475
## 10 Adelie  Torge~           42            20.2              190        4250
## # ... with 334 more rows, and 2 more variables: sex <chr>, year <dbl>
…
